{
  "name": "Macro Keyboard",
  "vendorId": "0x303a",
  "productId": "0x4009",
  "keycodes": [ "qmk_lighting" ],
  "matrix": { "rows": 4, "cols": 3 },
  "layouts": {
    "keymap": [
      ["3,2", "0,0", "0,1", "0,2"],
      ["3,1", "1,0", "1,1", "1,2"],
      ["3,0", "2,0", "2,1", "2,2"]
    ]
  },
  "menus": [
    {
      "label": "Lighting",
      "content": [
        {
          "label": "Backlight",
          "content": [
            {
              "label": "Backlight Toggle",
              "type": "toggle",
              "content": ["id_qmk_backlight_effect", 1, 2]
            },
            {
              "label": "Backlight Brightness",
              "type": "range",
              "options": [0, 100],
              "content": ["id_qmk_backlight_brightness", 1, 1]
            }
          ]
        }
      ]
    }
  ]
}

